<?xml version="1.0" encoding="UTF-8" standalone="no"?>
<!-- Generator: Adobe Illustrator 15.0.0, SVG Export Plug-In . SVG Version: 6.00 Build 0)  -->

<svg
   xmlns:dc="http://purl.org/dc/elements/1.1/"
   xmlns:cc="http://creativecommons.org/ns#"
   xmlns:rdf="http://www.w3.org/1999/02/22-rdf-syntax-ns#"
   xmlns:svg="http://www.w3.org/2000/svg"
   xmlns="http://www.w3.org/2000/svg"
   xmlns:sodipodi="http://sodipodi.sourceforge.net/DTD/sodipodi-0.dtd"
   xmlns:inkscape="http://www.inkscape.org/namespaces/inkscape"
   version="1.1"
   id="Layer_1"
   x="0px"
   y="0px"
   width="435.74802"
   height="338.21451"
   viewBox="0 0 435.74801 338.21449"
   enable-background="new 0 0 419.53 595.28"
   xml:space="preserve"
   sodipodi:docname="drinkgedrag-logo.svg"
   inkscape:version="0.92.4 (5da689c313, 2019-01-14)"><metadata
   id="metadata59"><rdf:RDF><cc:Work
       rdf:about=""><dc:format>image/svg+xml</dc:format><dc:type
         rdf:resource="http://purl.org/dc/dcmitype/StillImage" /><dc:title></dc:title></cc:Work></rdf:RDF></metadata><defs
   id="defs57">
	
	

		
		
		
		
		
		
		
		
	
		
		
		
		
		
		
		
		
		
		
		
		
		
		
		
	</defs><sodipodi:namedview
   pagecolor="#ffffff"
   bordercolor="#666666"
   borderopacity="1"
   objecttolerance="10"
   gridtolerance="10"
   guidetolerance="10"
   inkscape:pageopacity="0"
   inkscape:pageshadow="2"
   inkscape:window-width="1920"
   inkscape:window-height="1013"
   id="namedview55"
   showgrid="false"
   fit-margin-top="10"
   fit-margin-left="10"
   fit-margin-right="10"
   fit-margin-bottom="10"
   inkscape:zoom="2.2426716"
   inkscape:cx="237.12472"
   inkscape:cy="158.67856"
   inkscape:window-x="-9"
   inkscape:window-y="-9"
   inkscape:window-maximized="1"
   inkscape:current-layer="Layer_1" />
<path
   d="m 37.433446,272.15122 c -1.205467,0 -2.132227,0.41693 -2.784811,1.25305 -0.652583,0.84066 -0.978875,2.07558 -0.978875,3.70931 v 11.76237 c -1.497771,-1.63826 -3.036328,-2.84599 -4.613406,-3.63453 -1.574811,-0.79307 -3.514435,-1.18054 -5.807543,-1.18054 -3.967619,0 -7.167092,1.38901 -9.602952,4.17382 C 11.212265,291.01951 10,294.89876 10,299.88377 c 0,2.35429 0.303633,4.54543 0.917696,6.56663 0.614063,2.02119 1.513632,3.78408 2.69644,5.27958 1.189606,1.50004 2.59674,2.65112 4.221402,3.46005 1.624662,0.8044 3.387544,1.21227 5.299978,1.21227 1.438856,0 2.766683,-0.1994 3.981214,-0.5982 1.216797,-0.40334 2.347489,-0.98341 3.387545,-1.75156 1.037789,-0.77041 2.095972,-1.76968 3.165485,-2.991 v 0.78853 c 0,1.46152 0.353483,2.58541 1.06498,3.37169 0.711498,0.78627 1.613332,1.18054 2.698706,1.18054 1.110299,0 2.0144,-0.38067 2.714568,-1.14202 0.700168,-0.75682 1.051385,-1.89431 1.051385,-3.41247 v -35.1489 c 0,-1.4955 -0.326292,-2.62846 -0.97661,-3.39887 -0.652584,-0.76361 -1.581609,-1.14882 -2.789343,-1.14882 z m -5.236532,33.63979 c -0.69337,1.5091 -1.615598,2.62394 -2.778013,3.35809 -1.155617,0.72963 -2.433594,1.09217 -3.836196,1.09217 -1.379943,0 -2.655654,-0.3852 -3.820334,-1.15108 -1.171479,-0.77495 -2.089175,-1.91244 -2.762152,-3.43513 -0.670711,-1.51363 -1.006067,-3.35356 -1.006067,-5.51524 0,-2.04386 0.319494,-3.8362 0.949419,-5.38608 0.63219,-1.54989 1.52043,-2.73496 2.671515,-3.56202 1.148819,-0.82253 2.451721,-1.23946 3.913237,-1.23946 1.395804,0 2.689642,0.40333 3.867919,1.21227 1.17601,0.8044 2.109568,1.97814 2.800672,3.50084 0.691105,1.53176 1.035524,3.35129 1.035524,5.47445 0,2.26138 -0.346685,4.14209 -1.035524,5.65119 z"
   id="path2"
   inkscape:connector-curvature="0"
   style="fill:#ffffff;stroke-width:2.26591611" /><path
   d="m 68.664568,285.25502 c -1.572546,-0.83613 -3.197208,-1.25306 -4.87172,-1.25306 -1.672246,0 -3.009136,0.41693 -4.015203,1.25306 -0.997003,0.84065 -1.978145,2.07104 -2.92983,3.70477 -0.05891,-1.63373 -0.382939,-2.86412 -0.963014,-3.70477 -0.58234,-0.83613 -1.540823,-1.25306 -2.864118,-1.25306 -2.589942,0 -3.879248,1.78781 -3.879248,5.36796 v 22.18558 c 0,1.59748 0.367078,2.80068 1.105767,3.62094 0.738689,0.81346 1.683576,1.22586 2.834661,1.22586 1.166947,0 2.127695,-0.40787 2.886777,-1.21227 0.756816,-0.80893 1.139756,-2.01893 1.139756,-3.63453 v -6.65726 c 0,-2.39507 0.07478,-4.4208 0.231123,-6.08625 0.158614,-1.66318 0.439588,-3.0975 0.849719,-4.30524 0.407865,-1.20773 0.983407,-2.11636 1.71983,-2.7259 0.740955,-0.61406 1.694905,-0.91996 2.861852,-0.91996 0.858782,0 1.844456,0.17674 2.963818,0.53476 1.119363,0.36255 1.828595,0.54382 2.116366,0.54382 0.779475,0 1.506834,-0.3195 2.177545,-0.95169 0.668446,-0.63219 1.006067,-1.43432 1.006067,-2.4064 -0.0023,-1.37994 -0.79307,-2.48571 -2.370148,-3.32636 z"
   id="path4"
   inkscape:connector-curvature="0"
   style="fill:#ffffff;stroke-width:2.26591611" /><path
   d="m 79.318906,284.00196 c -1.164681,0 -2.1141,0.39881 -2.843725,1.19414 -0.729625,0.79534 -1.092172,1.98721 -1.092172,3.56202 v 22.79738 c 0,1.55896 0.362547,2.75309 1.092172,3.58922 0.729625,0.83612 1.679044,1.25758 2.843725,1.25758 1.171478,0 2.132227,-0.4124 2.893574,-1.22586 0.756816,-0.818 1.13749,-2.02346 1.13749,-3.62094 v -23.03077 c 0,-1.42073 -0.380674,-2.53102 -1.13749,-3.32863 -0.759082,-0.79533 -1.722096,-1.19414 -2.893574,-1.19414 z"
   id="path6"
   inkscape:connector-curvature="0"
   style="fill:#ffffff;stroke-width:2.26591611" /><path
   d="m 118.49433,289.25662 c -0.81573,-1.67224 -2.05519,-2.97061 -3.70704,-3.88151 -1.65412,-0.91543 -3.53483,-1.37088 -5.63307,-1.37088 -2.15942,0 -4.07411,0.43279 -5.7373,1.2961 -1.66545,0.86785 -3.19494,2.2206 -4.595275,4.07186 v -0.96075 c 0,-0.95169 -0.169943,-1.76515 -0.514363,-2.42453 -0.339887,-0.65938 -0.79307,-1.16015 -1.357283,-1.48644 -0.561947,-0.33083 -1.194138,-0.49624 -1.894306,-0.49624 -1.151086,0 -2.055186,0.37161 -2.716834,1.11936 -0.661647,0.75229 -0.992471,1.88525 -0.992471,3.40341 v 23.03077 c 0,1.55895 0.369345,2.75309 1.110299,3.58921 0.740955,0.83612 1.68131,1.25759 2.830129,1.25759 1.189606,0 2.157152,-0.40787 2.904905,-1.21227 0.747752,-0.80893 1.121628,-2.01893 1.121628,-3.63453 v -9.98363 c 0,-3.24932 0.197135,-5.46539 0.586872,-6.65273 0.546089,-1.47737 1.400339,-2.64659 2.569549,-3.49177 1.16921,-0.84972 2.45852,-1.26665 3.88151,-1.26665 2.17755,0 3.6368,0.69111 4.36642,2.08464 0.72963,1.39354 1.09218,3.39888 1.09218,6.02734 v 13.28053 c 0,1.55896 0.36707,2.75309 1.10803,3.58922 0.74095,0.83612 1.70397,1.25758 2.88678,1.25758 1.17148,0 2.11863,-0.4124 2.84825,-1.22586 0.73189,-0.818 1.09444,-2.02346 1.09444,-3.62094 v -14.82588 c 0,-1.75609 -0.077,-3.19495 -0.23339,-4.32337 -0.15635,-1.12843 -0.49397,-2.17755 -1.01966,-3.14963 z"
   id="path8"
   inkscape:connector-curvature="0"
   style="fill:#ffffff;stroke-width:2.26591611" /><path
   d="m 153.99217,308.72538 -8.17769,-12.84322 4.23273,-3.88151 c 2.15942,-1.94642 3.24253,-3.50537 3.24253,-4.67232 0,-0.95168 -0.33083,-1.74476 -0.99474,-2.37695 -0.65712,-0.63219 -1.48191,-0.94715 -2.48118,-0.94715 -0.83612,0 -1.54535,0.213 -2.12769,0.63672 -0.58461,0.42826 -1.4298,1.2304 -2.5401,2.39508 l -8.95943,9.39902 v -19.32147 c 0,-1.63373 -0.35801,-2.86865 -1.08084,-3.70931 -0.72056,-0.83612 -1.69491,-1.25305 -2.9185,-1.25305 -1.26665,0 -2.23873,0.45998 -2.92077,1.38901 -0.67977,0.91996 -1.02192,2.27044 -1.02192,4.04013 v 33.97514 c 0,1.59748 0.35121,2.80068 1.05591,3.62094 0.70017,0.81346 1.65865,1.22586 2.88678,1.22586 1.05139,0 1.98041,-0.41693 2.78481,-1.23946 0.80667,-0.83159 1.21227,-2.00986 1.21227,-3.54842 v -6.33324 l 4.31883,-4.08998 7.03567,11.56071 c 0.89277,1.38447 1.60427,2.33616 2.1277,2.86412 0.52569,0.52116 1.27571,0.78854 2.24779,0.78854 1.12842,0 2.03705,-0.36255 2.73042,-1.09671 0.69111,-0.72962 1.03326,-1.72663 1.03326,-2.99101 0,-0.44185 -0.13142,-0.91543 -0.39427,-1.41619 -0.25831,-0.49851 -0.6911,-1.22133 -1.29157,-2.17528 z"
   id="path10"
   inkscape:connector-curvature="0"
   style="fill:#ffffff;stroke-width:2.26591611" /><path
   d="m 185.16211,284.00196 c -1.06951,0 -1.94189,0.37615 -2.62619,1.13296 -0.67751,0.76588 -1.02193,1.83313 -1.02193,3.21307 v 1.08084 c -1.41847,-1.84445 -2.95702,-3.204 -4.61341,-4.07185 -1.64958,-0.86784 -3.60734,-1.2961 -5.86192,-1.2961 -1.88978,0 -3.62094,0.33535 -5.19801,1.0038 -1.57255,0.67298 -2.96609,1.66771 -4.17382,2.99101 -1.20773,1.32783 -2.13449,2.94796 -2.78708,4.87625 -0.65032,1.92603 -0.97661,4.08545 -0.97661,6.47825 0,3.21307 0.53023,6.04094 1.60427,8.49266 1.07404,2.45625 2.60127,4.35962 4.59528,5.72144 1.99627,1.36408 4.32337,2.04385 6.99035,2.04385 2.21833,0 4.13076,-0.44638 5.7373,-1.34142 1.60427,-0.8973 3.0182,-2.2002 4.24859,-3.91324 -0.0408,2.60581 -0.0974,4.50011 -0.17901,5.67839 -0.077,1.17374 -0.34215,2.27951 -0.80213,3.31503 -0.45545,1.02646 -1.25532,1.83313 -2.39281,2.40414 -1.13749,0.57554 -2.74402,0.86332 -4.80374,0.86332 -1.0106,0 -1.9079,-0.0929 -2.68284,-0.27418 -0.78175,-0.19034 -1.44566,-0.46905 -2.00081,-0.84972 -0.55515,-0.38067 -1.06271,-0.84065 -1.51816,-1.37088 -0.45998,-0.53475 -0.90184,-1.06724 -1.32783,-1.58841 -0.87917,-1.03552 -1.89884,-1.54988 -3.06805,-1.54988 -0.93356,0 -1.72663,0.31043 -2.39281,0.91996 -0.66391,0.6118 -0.9902,1.4026 -0.9902,2.37695 0,1.2825 0.58234,2.53556 1.74702,3.75235 1.16468,1.2168 2.83239,2.20927 4.99181,2.97288 2.15942,0.77042 4.60888,1.15109 7.35743,1.15109 2.99328,0 5.50165,-0.29684 7.51378,-0.8973 2.01667,-0.60727 3.64586,-1.53176 4.88758,-2.77575 1.24399,-1.24852 2.15262,-2.82333 2.71457,-4.73123 0.56195,-1.9079 0.84745,-4.18288 0.84745,-6.82947 v -23.14634 c 0,-1.88977 -0.25378,-3.33316 -0.75908,-4.33243 -0.4985,-0.99927 -1.51816,-1.50004 -3.05899,-1.50004 z m -5.04619,21.46503 c -0.73869,1.43432 -1.69717,2.50384 -2.87545,3.21307 -1.18054,0.71149 -2.4268,1.06724 -3.75462,1.06724 -2.2342,0 -4.06052,-0.82706 -5.47219,-2.47891 -1.4094,-1.65412 -2.11637,-4.09904 -2.11637,-7.32797 0,-3.19041 0.68658,-5.65573 2.05972,-7.38689 1.37315,-1.73116 3.19494,-2.59674 5.47446,-2.59674 2.33162,0 4.21233,0.90637 5.64439,2.71684 1.4298,1.80593 2.14809,4.33696 2.14809,7.58628 0.002,2.04386 -0.36934,3.78182 -1.10803,5.20708 z"
   id="path12"
   inkscape:connector-curvature="0"
   style="fill:#ffffff;stroke-width:2.26591611" /><path
   d="m 222.64263,301.26825 c 1.15335,-0.59821 1.72436,-1.88978 1.72436,-3.89965 0,-2.15941 -0.55741,-4.28031 -1.66545,-6.36495 -1.10803,-2.08012 -2.77348,-3.77955 -5.00314,-5.08925 -2.22739,-1.31423 -4.90117,-1.96908 -8.01228,-1.96908 -2.39507,0 -4.57488,0.38067 -6.53943,1.15108 -1.96455,0.77041 -3.62094,1.87165 -4.96236,3.31504 -1.33915,1.43885 -2.36335,3.16322 -3.06578,5.17762 -0.70244,2.01893 -1.04912,4.201 -1.04912,6.55529 0,5.00088 1.41846,8.9617 4.25766,11.87793 2.84599,2.92077 6.82493,4.38229 11.94137,4.38229 2.23873,0 4.2214,-0.29231 5.94124,-0.88145 1.72436,-0.58007 3.15188,-1.31423 4.28937,-2.2002 1.14203,-0.88597 1.99174,-1.81047 2.55822,-2.77575 0.56195,-0.96075 0.84519,-1.80593 0.84519,-2.52649 0,-0.818 -0.25152,-1.44792 -0.75682,-1.89431 -0.50983,-0.44639 -1.17147,-0.67298 -1.9872,-0.67298 -0.76135,0 -1.34369,0.17674 -1.74929,0.5257 -0.99021,0.93808 -1.8014,1.67677 -2.42,2.22059 -0.62539,0.53929 -1.30517,1.05365 -2.04386,1.52723 -0.74095,0.48264 -1.50456,0.83159 -2.29084,1.04912 -0.78854,0.23112 -1.66091,0.33989 -2.61486,0.33989 -1.42073,0 -2.72137,-0.34895 -3.89738,-1.04912 -1.17828,-0.7047 -2.12316,-1.74476 -2.8324,-3.12923 -0.70696,-1.37995 -1.07404,-2.97288 -1.09443,-4.78335 h 15.59177 c 2.07558,0.002 3.68891,-0.29457 4.83546,-0.88597 z m -20.43176,-3.63907 c 0.27417,-2.68284 1.04685,-4.70857 2.32256,-6.08171 1.27344,-1.37542 2.9049,-2.05746 4.88531,-2.05746 2.08465,0 3.76143,0.67751 5.03714,2.028 1.27344,1.35502 2.01213,3.38981 2.20473,6.11117 z"
   id="path14"
   inkscape:connector-curvature="0"
   style="fill:#ffffff;stroke-width:2.26591611" /><path
   d="m 256.68122,272.15122 c -1.20773,0 -2.13676,0.41693 -2.78481,1.25305 -0.65258,0.84066 -0.98114,2.07558 -0.98114,3.70931 v 11.76237 c -1.5023,-1.63826 -3.03633,-2.84599 -4.61341,-3.63453 -1.57481,-0.79307 -3.51443,-1.18054 -5.80754,-1.18054 -3.96988,0 -7.16936,1.38901 -9.60522,4.17382 -2.42906,2.78481 -3.64586,6.66406 -3.64586,11.64907 0,2.35429 0.30817,4.54543 0.91997,6.56663 0.60953,2.02346 1.51363,3.78408 2.6987,5.27958 1.18281,1.50004 2.59221,2.65112 4.21687,3.46005 1.6224,0.8044 3.38981,1.21227 5.29771,1.21227 1.43886,0 2.77122,-0.1994 3.98575,-0.5982 1.21453,-0.40334 2.34296,-0.98341 3.38528,-1.75156 1.04232,-0.76814 2.09597,-1.76968 3.16775,-2.991 v 0.78853 c 0,1.46152 0.35348,2.58541 1.06498,3.37169 0.70697,0.78854 1.6088,1.18054 2.69871,1.18054 1.10803,0 2.01213,-0.38067 2.7123,-1.14202 0.7047,-0.75682 1.04912,-1.89431 1.04912,-3.41247 v -35.1489 c 0,-1.4955 -0.32629,-2.62846 -0.97435,-3.39887 -0.65031,-0.76361 -1.57934,-1.14882 -2.78481,-1.14882 z m -5.2388,33.63979 c -0.6911,1.5091 -1.61559,2.62394 -2.77574,3.35809 -1.15789,0.72963 -2.43586,1.09217 -3.83846,1.09217 -1.38221,0 -2.65566,-0.3852 -3.82487,-1.15108 -1.16921,-0.77495 -2.08691,-1.91244 -2.75989,-3.43513 -0.66844,-1.51363 -1.0038,-3.35356 -1.0038,-5.51524 0,-2.04386 0.31496,-3.8362 0.94716,-5.38608 0.63445,-1.54989 1.52269,-2.73496 2.66924,-3.56202 1.15109,-0.82253 2.45399,-1.23946 3.91324,-1.23946 1.4026,0 2.69191,0.40333 3.86792,1.21227 1.17828,0.8044 2.11637,1.97814 2.8052,3.50084 0.69111,1.53176 1.031,3.35129 1.031,5.47445 0,2.26138 -0.33989,4.14209 -1.031,5.65119 z"
   id="path16"
   inkscape:connector-curvature="0"
   style="fill:#ffffff;stroke-width:2.26591611" /><path
   d="m 287.91234,285.25502 c -1.57481,-0.83613 -3.19947,-1.25306 -4.87172,-1.25306 -1.67677,0 -3.00913,0.41693 -4.01293,1.25306 -0.99927,0.84065 -1.98041,2.07104 -2.9321,3.70477 -0.0589,-1.63373 -0.38067,-2.86412 -0.96528,-3.70477 -0.58687,-0.83613 -1.53856,-1.25306 -2.85958,-1.25306 -2.58995,0 -3.88378,1.78781 -3.88378,5.36796 v 22.18558 c 0,1.59748 0.36934,2.80068 1.10803,3.62094 0.73869,0.81346 1.68131,1.22586 2.83013,1.22586 1.16694,0 2.12996,-0.40787 2.89131,-1.21227 0.75681,-0.80893 1.13749,-2.01893 1.13749,-3.63453 v -6.65726 c 0,-2.39507 0.0748,-4.4208 0.23565,-6.08625 0.15182,-1.66318 0.43506,-3.0975 0.84745,-4.30524 0.40787,-1.20773 0.97888,-2.11636 1.71983,-2.7259 0.73869,-0.61406 1.69491,-0.91996 2.85959,-0.91996 0.85652,0 1.84672,0.17674 2.96835,0.53476 1.1171,0.36255 1.81953,0.54382 2.1141,0.54382 0.77948,0 1.50457,-0.3195 2.17755,-0.95169 0.66844,-0.63219 1.0038,-1.43432 1.0038,-2.4064 -0.002,-1.37994 -0.79081,-2.48571 -2.36789,-3.32636 z"
   id="path18"
   inkscape:connector-curvature="0"
   style="fill:#ffffff;stroke-width:2.26591611" /><path
   d="m 320.52114,305.33783 c 0.0181,-1.59294 0.0363,-3.04539 0.0431,-4.34603 0.0113,-1.30516 0.0136,-2.89357 0.0136,-4.76295 0,-2.95702 -0.4124,-5.33397 -1.24172,-7.12631 -0.82479,-1.78781 -2.23873,-3.09297 -4.24406,-3.92003 -2.00534,-0.82706 -4.76069,-1.23946 -8.26153,-1.23946 -3.13603,0 -5.7509,0.42599 -7.8514,1.28251 -2.1073,0.85425 -3.65266,1.94189 -4.64286,3.26518 -0.99247,1.3233 -1.48871,2.68738 -1.48871,4.08998 0,0.89504 0.32856,1.6292 0.97888,2.20474 0.65031,0.57101 1.42526,0.85878 2.31803,0.85878 0.99473,0 1.64052,-0.18127 1.93736,-0.53929 0.30816,-0.35801 0.82252,-1.10123 1.55441,-2.22966 0.72736,-1.12842 1.60427,-1.97814 2.6262,-2.54009 1.01966,-0.56195 2.54236,-0.84519 4.56809,-0.84519 2.35428,0 3.90644,0.49171 4.65419,1.47285 0.75228,0.98341 1.17374,2.52196 1.27344,4.62473 -1.67451,0.48718 -3.22893,0.90184 -4.65645,1.23946 -1.43206,0.33989 -3.14963,0.71603 -5.15043,1.12389 -2.00987,0.4124 -3.26065,0.67298 -3.76822,0.78854 -2.41093,0.5257 -4.30977,1.55895 -5.69198,3.09751 -1.38221,1.53629 -2.07331,3.39434 -2.07331,5.57642 0,1.61107 0.42146,3.1111 1.25758,4.49105 0.83839,1.37994 2.03026,2.47438 3.57335,3.28331 1.55215,0.8044 3.34449,1.21226 5.38835,1.21226 2.23646,0 4.25539,-0.37614 6.05679,-1.12389 1.79914,-0.74775 3.66172,-1.87618 5.59002,-3.37168 0.89503,1.46151 1.74475,2.57181 2.53782,3.34675 0.79987,0.76588 1.6088,1.15109 2.42227,1.15109 0.97661,0 1.84445,-0.33536 2.6126,-1.00833 0.76814,-0.67298 1.15335,-1.4162 1.15335,-2.22966 0,-0.46905 -0.24925,-1.51364 -0.74549,-3.1383 -0.49623,-1.62466 -0.74322,-3.18814 -0.74322,-4.68818 z m -7.76529,-3.8226 c 0,2.76215 -0.36028,4.74936 -1.08084,5.95256 -0.62313,1.09217 -1.60201,1.98268 -2.93663,2.67378 -1.33236,0.69111 -2.78481,1.04006 -4.36189,1.04006 -1.47964,0 -2.67605,-0.42599 -3.58921,-1.27118 -0.91316,-0.84972 -1.37315,-1.87618 -1.37315,-3.08391 0,-1.16921 0.38974,-2.07105 1.16695,-2.7259 0.77721,-0.65032 1.59974,-1.09217 2.45172,-1.31423 0.85425,-0.22206 2.39961,-0.57554 4.62927,-1.04912 2.22513,-0.47811 3.92457,-0.92903 5.09378,-1.35955 z"
   id="path20"
   inkscape:connector-curvature="0"
   style="fill:#ffffff;stroke-width:2.26591611" /><path
   d="m 353.3588,284.00196 c -1.07404,0 -1.94642,0.37615 -2.6262,1.13296 -0.68204,0.76588 -1.02193,1.83313 -1.02193,3.21307 v 1.08084 c -1.41846,-1.84445 -2.95928,-3.204 -4.6134,-4.07185 -1.65185,-0.86784 -3.61187,-1.2961 -5.86646,-1.2961 -1.88977,0 -3.61867,0.33535 -5.19574,1.0038 -1.57708,0.67298 -2.96835,1.66771 -4.17155,2.99101 -1.20774,1.32783 -2.13903,2.94796 -2.79161,4.87625 -0.64806,1.92603 -0.97661,4.08545 -0.97661,6.47825 0,3.21307 0.53475,6.04094 1.6088,8.49266 1.06498,2.45625 2.59674,4.35962 4.59528,5.72144 1.994,1.36408 4.32336,2.04385 6.98808,2.04385 2.21833,0 4.13077,-0.44638 5.7373,-1.34142 1.60653,-0.8973 3.0182,-2.2002 4.24406,-3.91324 -0.0408,2.60581 -0.0929,4.50011 -0.17447,5.67839 -0.0748,1.17374 -0.33989,2.27951 -0.79987,3.31503 -0.45998,1.02646 -1.25985,1.83313 -2.39734,2.40414 -1.13976,0.57554 -2.73949,0.86332 -4.80148,0.86332 -1.0106,0 -1.9079,-0.0929 -2.68738,-0.27418 -0.7772,-0.19034 -1.44565,-0.46905 -1.99627,-0.84972 -0.55741,-0.38067 -1.06271,-0.84065 -1.52043,-1.37088 -0.45998,-0.53475 -0.8973,-1.06724 -1.33009,-1.58841 -0.87464,-1.03552 -1.89431,-1.54988 -3.06352,-1.54988 -0.93356,0 -1.73569,0.31043 -2.39281,0.91996 -0.66391,0.6118 -0.99247,1.4026 -0.99247,2.37695 0,1.2825 0.58688,2.53556 1.74702,3.75235 1.17148,1.2168 2.83467,2.20927 4.99182,2.97288 2.15942,0.77042 4.6134,1.15109 7.35969,1.15109 2.99101,0 5.50165,-0.29684 7.51151,-0.8973 2.0212,-0.60727 3.6436,-1.53176 4.88985,-2.77575 1.24626,-1.24852 2.15262,-2.82333 2.71457,-4.73123 0.56421,-1.9079 0.84745,-4.18288 0.84745,-6.82947 v -23.14634 c 0,-1.88977 -0.25378,-3.33316 -0.75908,-4.33243 -0.50077,-0.99927 -1.51816,-1.50004 -3.05672,-1.50004 z m -5.05073,21.46503 c -0.73869,1.43432 -1.7017,2.50384 -2.87771,3.21307 -1.18054,0.71149 -2.4268,1.06724 -3.75009,1.06724 -2.2342,0 -4.06506,-0.82706 -5.47219,-2.47891 -1.4094,-1.65412 -2.11637,-4.09904 -2.11637,-7.32797 0,-3.19041 0.68431,-5.65573 2.05292,-7.38689 1.37088,-1.73116 3.19948,-2.59674 5.47219,-2.59674 2.34069,0 4.2214,0.90637 5.65346,2.71684 1.4298,1.80593 2.14356,4.33696 2.14356,7.58628 0.005,2.04386 -0.36708,3.78182 -1.10577,5.20708 z"
   id="path22"
   inkscape:connector-curvature="0"
   style="fill:#ffffff;stroke-width:2.26591611" /><path
   d="m 368.15976,307.61281 c -1.23039,0 -2.25912,0.43279 -3.09524,1.28251 -0.83612,0.86331 -1.25758,1.88071 -1.25758,3.06805 0,1.4026 0.43732,2.49251 1.3165,3.26972 0.87464,0.77494 1.91469,1.16921 3.12243,1.16921 1.16468,0 2.18208,-0.39427 3.05219,-1.18054 0.86558,-0.78854 1.29384,-1.87618 1.29384,-3.25839 0,-1.20773 -0.42826,-2.23419 -1.29384,-3.07485 -0.87011,-0.84972 -1.9147,-1.27571 -3.1383,-1.27571 z"
   id="path24"
   inkscape:connector-curvature="0"
   style="fill:#ffffff;stroke-width:2.26591611" /><path
   d="m 408.58371,289.25662 c -0.81347,-1.67224 -2.04839,-2.97061 -3.70251,-3.88151 -1.65865,-0.91543 -3.5371,-1.37088 -5.63533,-1.37088 -2.15942,0 -4.07639,0.43279 -5.7373,1.2961 -1.65865,0.86785 -3.19494,2.2206 -4.59755,4.07186 v -0.96075 c 0,-0.95169 -0.16767,-1.76515 -0.51209,-2.42453 -0.33536,-0.65938 -0.78854,-1.16015 -1.35276,-1.48644 -0.56874,-0.33083 -1.19867,-0.49624 -1.89883,-0.49624 -1.14882,0 -2.05292,0.37161 -2.71457,1.11936 -0.66391,0.75229 -0.997,1.88525 -0.997,3.40341 v 23.03077 c 0,1.55895 0.37161,2.75309 1.11029,3.58921 0.74096,0.83612 1.68811,1.25759 2.83467,1.25759 1.18507,0 2.15262,-0.40787 2.90263,-1.21227 0.75229,-0.80893 1.12163,-2.01893 1.12163,-3.63453 v -9.98363 c 0,-3.24932 0.19714,-5.46539 0.58687,-6.65273 0.54382,-1.47737 1.39808,-2.64659 2.56955,-3.49177 1.16922,-0.84972 2.45852,-1.26665 3.88378,-1.26665 2.17528,0 3.63453,0.69111 4.36189,2.08464 0.72736,1.39354 1.09444,3.39888 1.09444,6.02734 v 13.28053 c 0,1.55896 0.36934,2.75309 1.10577,3.58922 0.74095,0.83612 1.70397,1.25758 2.89584,1.25758 1.16241,0 2.1141,-0.4124 2.84146,-1.22586 0.73189,-0.818 1.09443,-2.02346 1.09443,-3.62094 v -14.82588 c 0,-1.75609 -0.077,-3.19495 -0.23339,-4.32337 -0.15634,-1.12843 -0.49396,-2.17755 -1.02192,-3.14963 z"
   id="path26"
   inkscape:connector-curvature="0"
   style="fill:#ffffff;stroke-width:2.26591611" /><path
   d="m 424.63999,273.35895 c -0.73642,-0.8044 -1.71303,-1.20773 -2.92077,-1.20773 -1.20547,0 -2.16395,0.40787 -2.87091,1.22586 -0.7115,0.818 -1.06725,2.02346 -1.06725,3.6164 v 34.56429 c 0,1.55895 0.36255,2.75309 1.09217,3.58921 0.72963,0.83612 1.68131,1.25759 2.84373,1.25759 1.18507,0 2.15488,-0.40787 2.90717,-1.21227 0.75001,-0.80893 1.12389,-2.01893 1.12389,-3.63453 v -34.56429 c 0.002,-1.61106 -0.36708,-2.82333 -1.10803,-3.63453 z"
   id="path28"
   inkscape:connector-curvature="0"
   style="fill:#ffffff;stroke-width:2.26591611" /><path
   d="m 83.476862,276.74197 c 0,-0.0498 0.0136,-0.0997 0.0136,-0.14955 0,-0.12916 -0.02493,-0.24699 -0.03399,-0.37161 -0.03172,-0.94489 -0.290037,-2.00987 -1.06498,-3.14963 0,0 -2.680579,-2.9253 -3.000073,-5.34983 0,0 0.07251,2.3271 -2.750822,5.34983 0,0 -0.292304,0.45545 -0.589139,1.12843 0.07704,-0.10877 0.18354,-0.20393 0.274176,-0.3059 -0.335355,0.48264 -0.584606,1.03779 -0.718295,1.64959 0.113296,-0.4985 0.276442,-0.96075 0.444119,-1.34369 -0.444119,0.61633 -0.668445,1.34595 -0.668445,2.18208 0,0.34668 0.03852,0.66844 0.0997,0.97207 -0.05891,-0.51209 -0.01586,-1.00606 0.06571,-1.47964 -0.03399,0.23566 -0.06571,0.47358 -0.06571,0.7183 0,0.45318 0.07931,0.88597 0.194868,1.2961 -0.06571,-0.17674 -0.154082,-0.33762 -0.194868,-0.53476 0.09517,0.82253 0.407864,1.65186 1.157883,2.37468 0,0 0.117827,0.1201 0.324026,0.28551 0.595936,0.53929 1.327827,0.88824 2.136759,0.97661 0.0929,0.0136 0.183539,0.0249 0.278707,0.0317 0.03626,0 0.07024,0.0113 0.106498,0.0113 0.02493,0 0.04758,-0.007 0.07024,-0.009 0.863314,0.0136 1.842189,-0.2991 2.834661,-1.29384 0,0 0.183539,-0.23565 0.398801,-0.62992 0.401067,-0.64806 0.636722,-1.42527 0.677509,-2.25912 0.0023,-0.0362 0.0068,-0.0657 0.0091,-0.0997 z"
   id="path30"
   inkscape:connector-curvature="0"
   style="fill:#ffffff;stroke-width:2.26591611" /><path
   d="m 325.78487,141.61633 c -0.75002,-6.85439 -0.29457,-15.1839 -0.29457,-15.1839 2.59221,-21.06622 -12.95425,-18.6145 -12.95425,-18.6145 1.55896,-3.42607 -1.03552,-11.75784 -1.03552,-11.75784 h 3.10657 c 10.36204,-15.179374 0,-30.363274 0,-30.363274 -3.62093,-5.39515 -10.35977,-16.16731 -10.35977,-16.16731 -1.03325,-16.65449 -9.84314,-18.1228 -9.84314,-18.1228 -3.10883,-1.46831 -7.25319,-4.89891 -7.25319,-4.89891 -2.58995,-4.40721 -8.28872,-8.82121 -8.28872,-8.82121 -21.2407,-13.7155898 -38.34157,-4.89438 -38.34157,-4.89438 -13.59097,-6.2312698 -22.48469,2.08011 -25.56407,5.75543 -3.07938,-3.67305 -11.97536,-11.9844298 -25.56633,-5.75543 0,0 -17.09633,-8.8212098 -38.3393,4.89438 0,0 -0.41013,0.31949 -1.05138,0.85878 h -0.11557 v 0.0974 c -1.80366,1.53175 -5.26372,4.69271 -7.1263,7.86272 0,0 -4.1421,3.4306 -7.25546,4.89891 0,0 -8.80535,1.46832 -9.83861,18.1228 0,0 -6.73884,10.77217 -10.36204,16.16731 0,0 -10.35977,15.18391 0,30.363279 h 3.10431 c 0,0 -2.58994,8.334035 -1.03099,11.757835 0,0 -15.54645,-2.45172 -12.95425,18.6145 0,0 0.45319,8.32951 -0.29457,15.18391 0,0 -1.78101,10.28499 11.1755,27.42891 0,0 8.80535,19.10621 9.84088,26.93948 0,0 3.62773,11.75783 16.06308,13.22841 0,0 2.07104,20.08281 29.01732,23.50888 0,0 14.88933,22.68408 44.66574,0.33082 h 0.13595 c 29.77414,22.35326 44.66574,-0.33082 44.66574,-0.33082 26.94401,-3.42607 29.01732,-23.50888 29.01732,-23.50888 12.43535,-1.46832 16.06308,-13.22841 16.06308,-13.22841 1.03326,-7.83327 9.83861,-26.93948 9.83861,-26.93948 12.95651,-17.13939 11.1755,-27.42665 11.1755,-27.42665 z m -117.67129,80.93852 h -44.83115 c -1.21227,-9.06367 13.10832,-8.49719 13.10832,-8.49719 h 19.82677 c 4.39361,0.35349 3.96535,-5.09831 3.96535,-5.09831 v -53.25128 c -0.21526,-4.23953 -1.13296,-9.63015 -1.13296,-9.63015 -2.40413,-14.16197 -18.12733,-23.22564 -18.12733,-23.22564 -17.71266,-10.19662 -17.56085,-32.855781 -17.56085,-32.855781 0,-41.352973 10.19663,-64.578613 10.19663,-64.578613 h 34.55522 z m 94.96907,-52.04355 c 0,0 -7.34836,15.68014 -6.85666,22.53906 0,0 -7.8378,17.14392 -18.12506,-2.93889 0,0 10.77669,33.7984 -21.05943,32.33008 0,0 -13.89459,30.85498 -38.54323,-10.78123 0,0 -1.62919,-18.12278 5.232,-13.71558 0,0 9.79329,-0.48717 0,-4.4072 0,0 -10.7767,-4.40721 0,-15.18391 0,0 2.73496,-3.90417 -1.96002,-10.28499 0,0 -10.28952,-39.26833 5.38609,-41.677 0,0 3.9223,-8.77589 11.27066,-12.69366 0,0 6.36949,-6.86346 1.96002,-16.659014 0,0 -2.94342,-19.10167 1.95549,-20.08281 0,0 7.34836,2.45172 5.39288,-2.45173 0,0 -3.43513,-6.36949 -8.33178,-1.95548 0,0 -5.38835,3.42606 -3.92003,16.654482 0,0 4.414,18.614502 -11.26387,27.920622 0,0 -5.38835,-2.94343 -3.42833,-14.2073 0,0 -3.92004,-28.904024 7.83554,-37.224464 0,0 -14.6922,-15.68014 -3.4306,-40.65734 0,0 11.75784,-11.75783 15.18843,0 0,0 1.46605,6.85893 -7.59535,9.30612 0,0 -4.16475,4.40721 2.69191,2.44719 0,0 6.37176,-0.4917 12.74125,-14.6922 0,0 6.85439,-7.3461 24.49229,1.96002 0,0 9.79328,10.30765 15.67334,13.23295 0,0 5.87778,1.46151 7.3461,16.64542 0,0 8.81894,12.24501 11.75557,20.56998 0,0 4.41174,14.209564 -2.44719,13.720127 0,0 -8.26833,-2.972882 -5.88232,-14.209557 0,0 -5.87552,13.720119 -17.14165,16.659012 0,0 -4.40494,6.858928 3.43286,3.920035 0,0 14.6922,-11.757839 16.65675,3.430597 0,0 4.89211,15.1839 -8.32951,31.83839 0,0 -4.41174,5.39061 3.42833,10.28499 0,0 9.79329,13.72012 -8.81668,14.20729 0,0 16.16505,13.22389 16.16505,-13.22841 0,0 -7.34837,-17.63563 7.34836,-24.00059 0,0 5.38382,-6.36949 2.44493,12.24501 0,0 -0.69564,5.39062 0.87691,13.71559 -0.002,0 0.5914,8.81668 -12.14305,27.42439 z"
   id="path34"
   inkscape:connector-curvature="0"
   style="fill:#ffffff;stroke-width:2.26591611" /><path
   d="m 266.78268,51.437406 c 6.30831,-2.50157 10.33711,6.90878 10.33711,6.90878 -2.94116,3.42606 -1.46832,4.89891 -1.46832,4.89891 l 7.83327,1.96001 c 4.41174,9.30612 4.90345,8.81215 4.90345,8.81215 5.38835,-6.84986 -5.88006,-19.09714 -5.88006,-19.09714 -0.97661,-14.69673 -8.3295,-11.75784 -8.3295,-11.75784 -14.20503,0.49171 -15.67334,-8.3295 -15.67334,-8.3295 2.93889,-2.9389 8.27512,0 8.27512,0 6.30831,-0.97435 3.65492,-2.9389 3.65492,-2.9389 -6.18821,-6.85439 -15.84555,0 -15.84555,0 -3.47818,1.84446 -3.43286,7.83781 -3.43286,7.83781 -3.42833,7.8378 15.62576,11.70572 15.62576,11.70572 z"
   id="path36"
   inkscape:connector-curvature="0"
   style="fill:#ffffff;stroke-width:2.26591611" /><path
   d="m 254.10034,132.31022 c 14.41576,-1.89657 20.29355,5.89138 22.21958,9.50098 -2.39054,-7.40048 7.66106,-15.35158 7.66106,-15.35158 13.22389,-17.11446 -8.32951,-18.64169 -8.32951,-18.64169 -16.65448,6.8544 -11.75557,-4.89891 -11.75557,-4.89891 5.87779,-18.122798 2.88451,-21.061694 2.88451,-21.061694 -0.0566,-4.89891 12.7911,-2.44719 12.7911,-2.44719 -6.8544,-3.92003 -12.7911,-12.24954 -12.7911,-12.24954 0.43052,-11.75557 -6.31511,-11.26387 -6.31511,-11.26387 -8.81894,-2.93889 -16.65675,-12.24501 -16.65675,-12.24501 -1.96001,8.22981 -7.36196,11.12338 -9.4466,11.95497 3.1043,-0.64352 9.93604,1.76062 9.93604,1.76062 5.39062,-0.97887 9.80009,4.40268 9.80009,4.40268 11.2616,5.88231 6.79775,26.948536 6.79775,26.948536 -10.83108,5.386083 -7.78116,15.179368 -7.78116,15.179368 0,16.65449 9.79556,14.20956 9.79556,14.20956 11.26387,0.97888 15.18617,3.91777 15.18617,3.91777 -9.30612,16.16732 -31.83839,0 -31.83839,0 0,8.32498 0,16.65449 0,16.65449 2.94569,-0.48717 7.84233,-6.36949 7.84233,-6.36949 z"
   id="path38"
   inkscape:connector-curvature="0"
   style="fill:#ffffff;stroke-width:2.26591611" /><path
   d="m 276.31992,141.8112 c 0.19033,0.59367 0.43732,1.18281 0.80213,1.76515 -0.002,0.002 -0.24245,-0.71376 -0.80213,-1.76515 z"
   id="path40"
   inkscape:connector-curvature="0"
   style="fill:#ffffff;stroke-width:2.26591611" /><path
   d="m 234.36422,55.606686 c -0.3195,0.0657 -0.61407,0.15409 -0.84066,0.29004 0,0 0.32403,-0.0838 0.84066,-0.29004 z"
   id="path42"
   inkscape:connector-curvature="0"
   style="fill:#ffffff;stroke-width:2.26591611" /><path
   d="m 275.16203,165.82538 c -2.93889,-24.27929 -17.14392,-14.41349 -17.14392,-14.41349 -13.71785,10.78123 -19.10394,6.85893 -19.10394,6.85893 -13.22841,-4.89438 -5.39061,-23.02171 -5.39061,-23.02171 -3.4306,-2.93889 -4.40947,0 -4.40947,0 -3.72743,26.86697 4.40947,30.57627 4.40947,30.57627 13.54565,6.26753 27.01878,-7.77662 27.01878,-7.77662 6.44654,-4.13756 9.89526,10.99875 9.89526,10.99875 5.07792,13.22389 8.6422,11.75558 8.6422,11.75558 11.75558,-0.49171 10.76537,-12.73219 10.76537,-12.73219 -9.92471,20.56093 -14.68314,-2.24552 -14.68314,-2.24552 z"
   id="path44"
   inkscape:connector-curvature="0"
   style="fill:#ffffff;stroke-width:2.26591611" /><path
   d="m 257.0415,186.45881 c 2.44493,-10.01988 0,-12.02068 0,-12.02068 -3.5099,16.38031 -17.63789,11.26387 -17.63789,11.26387 l 11.34318,4.41174 c 15.25868,8.81214 5.31584,15.17936 5.31584,15.17936 -4.41174,3.92003 -1.96002,5.39061 -1.96002,5.39061 2.94116,-0.97887 9.79556,-6.85892 9.79556,-6.85892 2.93662,-9.79555 -6.85667,-17.36598 -6.85667,-17.36598 z"
   id="path46"
   inkscape:connector-curvature="0"
   style="fill:#ffffff;stroke-width:2.26591611" /><path
   d="m 242.34251,215.09092 c -4.40721,11.2684 -11.75331,3.4306 -11.75331,3.4306 1.95775,8.32951 10.77216,6.85893 10.77216,6.85893 1.46832,-2.45173 6.37176,-4.20328 6.37176,-4.20328 -5.39061,-1.26665 -5.39061,-6.08625 -5.39061,-6.08625 z"
   id="path48"
   inkscape:connector-curvature="0"
   style="fill:#ffffff;stroke-width:2.26591611" />
</svg>