<?xml version="1.0" encoding="utf-8"?>
<!-- Generator: Adobe Illustrator 15.0.0, SVG Export Plug-In . SVG Version: 6.00 Build 0)  -->
<!DOCTYPE svg PUBLIC "-//W3C//DTD SVG 1.1//EN" "http://www.w3.org/Graphics/SVG/1.1/DTD/svg11.dtd">
<svg version="1.1" id="Layer_1" xmlns="http://www.w3.org/2000/svg" xmlns:xlink="http://www.w3.org/1999/xlink" x="0px" y="0px"
	 width="419.53px" height="595.28px" viewBox="0 0 419.53 595.28" enable-background="new 0 0 419.53 595.28" xml:space="preserve">
<g>
	<g>
		<path d="M129.373,344.588c-0.532,0-0.941,0.184-1.229,0.553c-0.288,0.371-0.432,0.916-0.432,1.637v5.191
			c-0.661-0.723-1.34-1.256-2.036-1.604c-0.695-0.35-1.551-0.521-2.563-0.521c-1.751,0-3.163,0.613-4.238,1.842
			c-1.074,1.229-1.609,2.941-1.609,5.141c0,1.039,0.134,2.006,0.405,2.898s0.668,1.67,1.19,2.33c0.525,0.662,1.146,1.17,1.863,1.527
			c0.717,0.355,1.495,0.535,2.339,0.535c0.635,0,1.221-0.088,1.757-0.264c0.537-0.178,1.036-0.434,1.495-0.773
			c0.458-0.34,0.925-0.781,1.397-1.32v0.348c0,0.645,0.156,1.141,0.47,1.488s0.712,0.521,1.191,0.521
			c0.49,0,0.889-0.168,1.198-0.504c0.309-0.334,0.464-0.836,0.464-1.506v-15.512c0-0.66-0.144-1.16-0.431-1.5
			C130.316,344.758,129.906,344.588,129.373,344.588z M127.062,359.434c-0.306,0.666-0.713,1.158-1.226,1.482
			c-0.51,0.322-1.074,0.482-1.693,0.482c-0.609,0-1.172-0.17-1.686-0.508c-0.517-0.342-0.922-0.844-1.219-1.516
			c-0.296-0.668-0.444-1.48-0.444-2.434c0-0.902,0.141-1.693,0.419-2.377c0.279-0.684,0.671-1.207,1.179-1.572
			c0.507-0.363,1.082-0.547,1.727-0.547c0.616,0,1.187,0.178,1.707,0.535c0.519,0.355,0.931,0.873,1.236,1.545
			c0.305,0.676,0.457,1.479,0.457,2.416C127.519,357.938,127.366,358.768,127.062,359.434z"/>
		<path d="M143.156,350.371c-0.694-0.369-1.411-0.553-2.15-0.553c-0.738,0-1.328,0.184-1.772,0.553
			c-0.44,0.371-0.873,0.914-1.293,1.635c-0.026-0.721-0.169-1.264-0.425-1.635c-0.257-0.369-0.68-0.553-1.264-0.553
			c-1.143,0-1.712,0.789-1.712,2.369v9.791c0,0.705,0.162,1.236,0.488,1.598c0.326,0.359,0.743,0.541,1.251,0.541
			c0.515,0,0.939-0.18,1.274-0.535c0.334-0.357,0.503-0.891,0.503-1.604v-2.938c0-1.057,0.033-1.951,0.102-2.686
			c0.07-0.734,0.194-1.367,0.375-1.9c0.18-0.533,0.434-0.934,0.759-1.203c0.327-0.271,0.748-0.406,1.263-0.406
			c0.379,0,0.814,0.078,1.308,0.236c0.494,0.16,0.807,0.24,0.934,0.24c0.344,0,0.665-0.141,0.961-0.42
			c0.295-0.279,0.444-0.633,0.444-1.062C144.201,351.23,143.852,350.742,143.156,350.371z"/>
		<path d="M147.858,349.818c-0.514,0-0.933,0.176-1.255,0.527s-0.482,0.877-0.482,1.572v10.061c0,0.688,0.16,1.215,0.482,1.584
			s0.741,0.555,1.255,0.555c0.517,0,0.941-0.182,1.277-0.541c0.334-0.361,0.502-0.893,0.502-1.598v-10.164
			c0-0.627-0.168-1.117-0.502-1.469C148.8,349.994,148.375,349.818,147.858,349.818z"/>
		<path d="M165.147,352.137c-0.36-0.738-0.907-1.311-1.636-1.713c-0.73-0.404-1.56-0.605-2.486-0.605
			c-0.953,0-1.798,0.191-2.532,0.572c-0.735,0.383-1.41,0.98-2.028,1.797v-0.424c0-0.42-0.075-0.779-0.227-1.07
			c-0.15-0.291-0.35-0.512-0.599-0.656c-0.248-0.146-0.527-0.219-0.836-0.219c-0.508,0-0.907,0.164-1.199,0.494
			c-0.292,0.332-0.438,0.832-0.438,1.502v10.164c0,0.688,0.163,1.215,0.49,1.584s0.742,0.555,1.249,0.555
			c0.525,0,0.952-0.18,1.282-0.535c0.33-0.357,0.495-0.891,0.495-1.604v-4.406c0-1.434,0.087-2.412,0.259-2.936
			c0.241-0.652,0.618-1.168,1.134-1.541c0.516-0.375,1.085-0.559,1.713-0.559c0.961,0,1.605,0.305,1.927,0.92s0.482,1.5,0.482,2.66
			v5.861c0,0.688,0.162,1.215,0.489,1.584s0.752,0.555,1.274,0.555c0.517,0,0.935-0.182,1.257-0.541
			c0.323-0.361,0.483-0.893,0.483-1.598v-6.543c0-0.775-0.034-1.41-0.103-1.908C165.528,353.029,165.379,352.566,165.147,352.137z"
			/>
		<path d="M180.813,360.729l-3.609-5.668l1.868-1.713c0.953-0.859,1.431-1.547,1.431-2.062c0-0.42-0.146-0.77-0.439-1.049
			c-0.29-0.279-0.654-0.418-1.095-0.418c-0.369,0-0.682,0.094-0.939,0.281c-0.258,0.189-0.631,0.543-1.121,1.057l-3.954,4.148
			v-8.527c0-0.721-0.158-1.266-0.477-1.637c-0.318-0.369-0.748-0.553-1.288-0.553c-0.559,0-0.988,0.203-1.289,0.613
			c-0.3,0.406-0.451,1.002-0.451,1.783v14.994c0,0.705,0.155,1.236,0.466,1.598c0.309,0.359,0.732,0.541,1.274,0.541
			c0.464,0,0.874-0.184,1.229-0.547c0.356-0.367,0.535-0.887,0.535-1.566v-2.795l1.906-1.805l3.105,5.102
			c0.394,0.611,0.708,1.031,0.939,1.264c0.232,0.23,0.563,0.348,0.992,0.348c0.498,0,0.899-0.16,1.205-0.484
			c0.305-0.322,0.456-0.762,0.456-1.32c0-0.195-0.058-0.404-0.174-0.625C181.269,361.469,181.078,361.15,180.813,360.729z"/>
		<path d="M194.569,349.818c-0.472,0-0.857,0.166-1.159,0.5c-0.299,0.338-0.451,0.809-0.451,1.418v0.477
			c-0.626-0.814-1.305-1.414-2.036-1.797c-0.728-0.383-1.592-0.572-2.587-0.572c-0.834,0-1.598,0.148-2.294,0.443
			c-0.694,0.297-1.309,0.736-1.842,1.32c-0.533,0.586-0.942,1.301-1.23,2.152c-0.287,0.85-0.431,1.803-0.431,2.859
			c0,1.418,0.234,2.666,0.708,3.748c0.474,1.084,1.148,1.924,2.028,2.525c0.881,0.602,1.908,0.902,3.085,0.902
			c0.979,0,1.823-0.197,2.532-0.592c0.708-0.396,1.332-0.971,1.875-1.727c-0.018,1.15-0.043,1.986-0.079,2.506
			c-0.034,0.518-0.151,1.006-0.354,1.463c-0.201,0.453-0.554,0.809-1.056,1.061c-0.502,0.254-1.211,0.381-2.12,0.381
			c-0.446,0-0.842-0.041-1.184-0.121c-0.345-0.084-0.638-0.207-0.883-0.375s-0.469-0.371-0.67-0.605
			c-0.203-0.236-0.398-0.471-0.586-0.701c-0.388-0.457-0.838-0.684-1.354-0.684c-0.412,0-0.762,0.137-1.056,0.406
			c-0.293,0.27-0.437,0.619-0.437,1.049c0,0.566,0.257,1.119,0.771,1.656s1.25,0.975,2.203,1.312
			c0.953,0.34,2.034,0.508,3.247,0.508c1.321,0,2.428-0.131,3.316-0.396c0.89-0.268,1.609-0.676,2.157-1.225
			c0.549-0.551,0.95-1.246,1.198-2.088s0.374-1.846,0.374-3.014v-10.215c0-0.834-0.112-1.471-0.335-1.912
			C195.699,350.039,195.249,349.818,194.569,349.818z M192.342,359.291c-0.326,0.633-0.749,1.105-1.269,1.418
			c-0.521,0.314-1.071,0.471-1.657,0.471c-0.986,0-1.792-0.365-2.415-1.094c-0.622-0.73-0.934-1.809-0.934-3.234
			c0-1.408,0.303-2.496,0.909-3.26s1.41-1.146,2.416-1.146c1.029,0,1.859,0.4,2.491,1.199c0.631,0.797,0.948,1.914,0.948,3.348
			C192.832,357.895,192.668,358.662,192.342,359.291z"/>
		<path d="M211.11,357.438c0.509-0.264,0.761-0.834,0.761-1.721c0-0.953-0.246-1.889-0.735-2.809
			c-0.489-0.918-1.224-1.668-2.208-2.246c-0.983-0.58-2.163-0.869-3.536-0.869c-1.057,0-2.019,0.168-2.886,0.508
			s-1.598,0.826-2.19,1.463c-0.591,0.635-1.043,1.396-1.353,2.285c-0.31,0.891-0.463,1.854-0.463,2.893
			c0,2.207,0.626,3.955,1.879,5.242c1.256,1.289,3.012,1.934,5.27,1.934c0.988,0,1.863-0.129,2.622-0.389
			c0.761-0.256,1.391-0.58,1.893-0.971c0.504-0.391,0.879-0.799,1.129-1.225c0.248-0.424,0.373-0.797,0.373-1.115
			c0-0.361-0.111-0.639-0.334-0.836c-0.225-0.197-0.517-0.297-0.877-0.297c-0.336,0-0.593,0.078-0.772,0.232
			c-0.437,0.414-0.795,0.74-1.068,0.98c-0.276,0.238-0.576,0.465-0.902,0.674c-0.327,0.213-0.664,0.367-1.011,0.463
			c-0.348,0.102-0.733,0.15-1.154,0.15c-0.627,0-1.201-0.154-1.72-0.463c-0.52-0.311-0.937-0.77-1.25-1.381
			c-0.312-0.609-0.474-1.312-0.483-2.111h6.881C209.892,357.83,210.604,357.699,211.11,357.438z M202.093,355.832
			c0.121-1.184,0.462-2.078,1.025-2.684c0.562-0.607,1.282-0.908,2.156-0.908c0.92,0,1.66,0.299,2.223,0.895
			c0.562,0.598,0.888,1.496,0.973,2.697H202.093z"/>
		<path d="M226.132,344.588c-0.533,0-0.943,0.184-1.229,0.553c-0.288,0.371-0.433,0.916-0.433,1.637v5.191
			c-0.663-0.723-1.34-1.256-2.036-1.604c-0.695-0.35-1.551-0.521-2.563-0.521c-1.752,0-3.164,0.613-4.239,1.842
			c-1.072,1.229-1.609,2.941-1.609,5.141c0,1.039,0.136,2.006,0.406,2.898c0.269,0.893,0.668,1.67,1.191,2.33
			c0.522,0.662,1.144,1.17,1.861,1.527c0.716,0.355,1.496,0.535,2.338,0.535c0.635,0,1.223-0.088,1.759-0.264
			c0.536-0.178,1.034-0.434,1.494-0.773s0.925-0.781,1.398-1.32v0.348c0,0.645,0.156,1.141,0.47,1.488
			c0.312,0.348,0.71,0.521,1.191,0.521c0.489,0,0.888-0.168,1.197-0.504c0.311-0.334,0.463-0.836,0.463-1.506v-15.512
			c0-0.66-0.144-1.16-0.43-1.5C227.074,344.758,226.664,344.588,226.132,344.588z M223.82,359.434
			c-0.305,0.666-0.713,1.158-1.225,1.482c-0.511,0.322-1.075,0.482-1.694,0.482c-0.61,0-1.172-0.17-1.688-0.508
			c-0.516-0.342-0.921-0.844-1.218-1.516c-0.295-0.668-0.443-1.48-0.443-2.434c0-0.902,0.139-1.693,0.418-2.377
			c0.28-0.684,0.672-1.207,1.178-1.572c0.508-0.363,1.083-0.547,1.727-0.547c0.619,0,1.188,0.178,1.707,0.535
			c0.52,0.355,0.934,0.873,1.238,1.545c0.305,0.676,0.455,1.479,0.455,2.416C224.275,357.938,224.125,358.768,223.82,359.434z"/>
		<path d="M239.915,350.371c-0.695-0.369-1.412-0.553-2.15-0.553c-0.74,0-1.328,0.184-1.771,0.553
			c-0.441,0.371-0.874,0.914-1.294,1.635c-0.026-0.721-0.168-1.264-0.426-1.635c-0.259-0.369-0.679-0.553-1.262-0.553
			c-1.143,0-1.714,0.789-1.714,2.369v9.791c0,0.705,0.163,1.236,0.489,1.598c0.326,0.359,0.742,0.541,1.249,0.541
			c0.515,0,0.94-0.18,1.276-0.535c0.334-0.357,0.502-0.891,0.502-1.604v-2.938c0-1.057,0.033-1.951,0.104-2.686
			c0.067-0.734,0.192-1.367,0.374-1.9c0.18-0.533,0.432-0.934,0.759-1.203c0.326-0.271,0.748-0.406,1.262-0.406
			c0.378,0,0.815,0.078,1.31,0.236c0.493,0.16,0.803,0.24,0.933,0.24c0.344,0,0.664-0.141,0.961-0.42
			c0.295-0.279,0.443-0.633,0.443-1.062C240.959,351.23,240.611,350.742,239.915,350.371z"/>
		<path d="M254.306,359.234c0.008-0.703,0.016-1.344,0.019-1.918c0.005-0.576,0.006-1.277,0.006-2.102
			c0-1.305-0.182-2.354-0.548-3.145c-0.364-0.789-0.988-1.365-1.873-1.73s-2.101-0.547-3.646-0.547
			c-1.384,0-2.538,0.188-3.465,0.566c-0.93,0.377-1.612,0.857-2.049,1.441c-0.438,0.584-0.657,1.186-0.657,1.805
			c0,0.395,0.145,0.719,0.432,0.973c0.287,0.252,0.629,0.379,1.023,0.379c0.439,0,0.724-0.08,0.855-0.238
			c0.136-0.158,0.363-0.486,0.686-0.984c0.321-0.498,0.708-0.873,1.159-1.121c0.45-0.248,1.122-0.373,2.016-0.373
			c1.039,0,1.724,0.217,2.054,0.65c0.332,0.434,0.518,1.113,0.562,2.041c-0.739,0.215-1.425,0.398-2.055,0.547
			c-0.632,0.15-1.39,0.316-2.273,0.496c-0.887,0.182-1.439,0.297-1.663,0.348c-1.064,0.232-1.902,0.688-2.512,1.367
			c-0.61,0.678-0.915,1.498-0.915,2.461c0,0.711,0.186,1.373,0.555,1.982c0.37,0.609,0.896,1.092,1.577,1.449
			c0.685,0.355,1.476,0.535,2.378,0.535c0.987,0,1.878-0.166,2.673-0.496c0.794-0.33,1.616-0.828,2.467-1.488
			c0.395,0.645,0.77,1.135,1.12,1.477c0.353,0.338,0.71,0.508,1.069,0.508c0.431,0,0.814-0.148,1.153-0.445s0.509-0.625,0.509-0.984
			c0-0.207-0.11-0.668-0.329-1.385S254.306,359.896,254.306,359.234z M250.879,357.547c0,1.219-0.159,2.096-0.477,2.627
			c-0.275,0.482-0.707,0.875-1.296,1.18c-0.588,0.305-1.229,0.459-1.925,0.459c-0.653,0-1.181-0.188-1.584-0.561
			c-0.403-0.375-0.606-0.828-0.606-1.361c0-0.516,0.172-0.914,0.515-1.203c0.343-0.287,0.706-0.482,1.082-0.58
			c0.377-0.098,1.059-0.254,2.043-0.463c0.982-0.211,1.732-0.41,2.248-0.6V357.547z"/>
		<path d="M268.798,349.818c-0.474,0-0.859,0.166-1.159,0.5c-0.301,0.338-0.451,0.809-0.451,1.418v0.477
			c-0.626-0.814-1.306-1.414-2.036-1.797c-0.729-0.383-1.594-0.572-2.589-0.572c-0.834,0-1.597,0.148-2.293,0.443
			c-0.696,0.297-1.31,0.736-1.841,1.32c-0.533,0.586-0.944,1.301-1.232,2.152c-0.286,0.85-0.431,1.803-0.431,2.859
			c0,1.418,0.236,2.666,0.71,3.748c0.47,1.084,1.146,1.924,2.028,2.525c0.88,0.602,1.908,0.902,3.084,0.902
			c0.979,0,1.823-0.197,2.532-0.592c0.709-0.396,1.332-0.971,1.873-1.727c-0.018,1.15-0.041,1.986-0.077,2.506
			c-0.033,0.518-0.15,1.006-0.353,1.463c-0.203,0.453-0.556,0.809-1.058,1.061c-0.503,0.254-1.209,0.381-2.119,0.381
			c-0.446,0-0.842-0.041-1.186-0.121c-0.343-0.084-0.638-0.207-0.881-0.375c-0.246-0.168-0.469-0.371-0.671-0.605
			c-0.203-0.236-0.396-0.471-0.587-0.701c-0.386-0.457-0.836-0.684-1.352-0.684c-0.412,0-0.766,0.137-1.056,0.406
			c-0.293,0.27-0.438,0.619-0.438,1.049c0,0.566,0.259,1.119,0.771,1.656c0.517,0.537,1.251,0.975,2.203,1.312
			c0.953,0.34,2.036,0.508,3.248,0.508c1.32,0,2.428-0.131,3.315-0.396c0.892-0.268,1.608-0.676,2.158-1.225
			c0.55-0.551,0.95-1.246,1.198-2.088c0.249-0.842,0.374-1.846,0.374-3.014v-10.215c0-0.834-0.112-1.471-0.335-1.912
			C269.926,350.039,269.477,349.818,268.798,349.818z M266.569,359.291c-0.326,0.633-0.751,1.105-1.27,1.418
			c-0.521,0.314-1.071,0.471-1.655,0.471c-0.986,0-1.794-0.365-2.415-1.094c-0.622-0.73-0.934-1.809-0.934-3.234
			c0-1.408,0.302-2.496,0.906-3.26c0.605-0.764,1.412-1.146,2.415-1.146c1.033,0,1.863,0.4,2.495,1.199
			c0.631,0.797,0.946,1.914,0.946,3.348C267.059,357.895,266.895,358.662,266.569,359.291z"/>
		<path d="M275.33,360.238c-0.543,0-0.997,0.191-1.366,0.566c-0.369,0.381-0.555,0.83-0.555,1.354c0,0.619,0.193,1.1,0.581,1.443
			c0.386,0.342,0.845,0.516,1.378,0.516c0.514,0,0.963-0.174,1.347-0.521c0.382-0.348,0.571-0.828,0.571-1.438
			c0-0.533-0.189-0.986-0.571-1.357C276.331,360.426,275.87,360.238,275.33,360.238z"/>
		<path d="M293.17,352.137c-0.359-0.738-0.904-1.311-1.634-1.713c-0.732-0.404-1.561-0.605-2.487-0.605
			c-0.953,0-1.799,0.191-2.532,0.572c-0.732,0.383-1.41,0.98-2.029,1.797v-0.424c0-0.42-0.074-0.779-0.226-1.07
			c-0.148-0.291-0.348-0.512-0.597-0.656c-0.251-0.146-0.529-0.219-0.838-0.219c-0.507,0-0.906,0.164-1.198,0.494
			c-0.293,0.332-0.44,0.832-0.44,1.502v10.164c0,0.688,0.164,1.215,0.49,1.584c0.327,0.369,0.745,0.555,1.251,0.555
			c0.523,0,0.95-0.18,1.281-0.535c0.332-0.357,0.495-0.891,0.495-1.604v-4.406c0-1.434,0.087-2.412,0.259-2.936
			c0.24-0.652,0.617-1.168,1.134-1.541c0.516-0.375,1.085-0.559,1.714-0.559c0.96,0,1.604,0.305,1.925,0.92s0.483,1.5,0.483,2.66
			v5.861c0,0.688,0.163,1.215,0.488,1.584c0.327,0.369,0.752,0.555,1.278,0.555c0.513,0,0.933-0.182,1.254-0.541
			c0.323-0.361,0.483-0.893,0.483-1.598v-6.543c0-0.775-0.034-1.41-0.103-1.908C293.552,353.029,293.403,352.566,293.17,352.137z"/>
		<path d="M300.256,345.121c-0.325-0.355-0.756-0.533-1.289-0.533c-0.532,0-0.955,0.18-1.267,0.541
			c-0.314,0.361-0.471,0.893-0.471,1.596v15.254c0,0.688,0.16,1.215,0.482,1.584s0.742,0.555,1.255,0.555
			c0.523,0,0.951-0.18,1.283-0.535c0.331-0.357,0.496-0.891,0.496-1.604v-15.254C300.746,346.014,300.583,345.479,300.256,345.121z"
			/>
		<path d="M149.693,346.614c0-0.022,0.006-0.044,0.006-0.066c0-0.057-0.011-0.109-0.015-0.164c-0.014-0.417-0.128-0.887-0.47-1.39
			c0,0-1.183-1.291-1.324-2.361c0,0,0.032,1.027-1.214,2.361c0,0-0.129,0.201-0.26,0.498c0.034-0.048,0.081-0.09,0.121-0.135
			c-0.148,0.213-0.258,0.458-0.317,0.728c0.05-0.22,0.122-0.424,0.196-0.593c-0.196,0.272-0.295,0.594-0.295,0.963
			c0,0.153,0.017,0.295,0.044,0.429c-0.026-0.226-0.007-0.444,0.029-0.653c-0.015,0.104-0.029,0.209-0.029,0.317
			c0,0.2,0.035,0.391,0.086,0.572c-0.029-0.078-0.068-0.149-0.086-0.236c0.042,0.363,0.18,0.729,0.511,1.048
			c0,0,0.052,0.053,0.143,0.126c0.263,0.238,0.586,0.392,0.943,0.431c0.041,0.006,0.081,0.011,0.123,0.014
			c0.016,0,0.031,0.005,0.047,0.005c0.011,0,0.021-0.003,0.031-0.004c0.381,0.006,0.813-0.132,1.251-0.571
			c0,0,0.081-0.104,0.176-0.278c0.177-0.286,0.281-0.629,0.299-0.997C149.69,346.642,149.692,346.629,149.693,346.614z"/>
	</g>
	<g>
		<path d="M256.629,286.98c-0.331-3.025-0.13-6.701-0.13-6.701c1.144-9.297-5.717-8.215-5.717-8.215
			c0.688-1.512-0.457-5.189-0.457-5.189h1.371c4.573-6.699,0-13.4,0-13.4c-1.598-2.381-4.572-7.135-4.572-7.135
			c-0.456-7.35-4.344-7.998-4.344-7.998c-1.372-0.648-3.201-2.162-3.201-2.162c-1.143-1.945-3.658-3.893-3.658-3.893
			c-9.374-6.053-16.921-2.16-16.921-2.16c-5.998-2.75-9.923,0.918-11.282,2.54c-1.359-1.621-5.285-5.289-11.283-2.54
			c0,0-7.545-3.893-16.92,2.16c0,0-0.181,0.141-0.464,0.379H179v0.043c-0.796,0.676-2.323,2.071-3.145,3.47
			c0,0-1.828,1.514-3.202,2.162c0,0-3.886,0.648-4.342,7.998c0,0-2.974,4.754-4.573,7.135c0,0-4.572,6.701,0,13.4h1.37
			c0,0-1.143,3.678-0.455,5.189c0,0-6.861-1.082-5.717,8.215c0,0,0.2,3.676-0.13,6.701c0,0-0.786,4.539,4.932,12.105
			c0,0,3.886,8.432,4.343,11.889c0,0,1.601,5.189,7.089,5.838c0,0,0.914,8.863,12.806,10.375c0,0,6.571,10.011,19.712,0.146h0.06
			c13.14,9.865,19.712-0.146,19.712-0.146c11.891-1.512,12.806-10.375,12.806-10.375c5.488-0.648,7.089-5.838,7.089-5.838
			c0.456-3.457,4.342-11.889,4.342-11.889C257.415,291.52,256.629,286.98,256.629,286.98z M204.698,322.7h-19.785
			c-0.535-4,5.785-3.75,5.785-3.75h8.75c1.939,0.156,1.75-2.25,1.75-2.25v-23.501c-0.095-1.871-0.5-4.25-0.5-4.25
			c-1.061-6.25-8-10.25-8-10.25c-7.817-4.5-7.75-14.5-7.75-14.5c0-18.25,4.5-28.5,4.5-28.5h15.25V322.7z M246.61,299.732
			c0,0-3.243,6.92-3.026,9.947c0,0-3.459,7.566-7.999-1.297c0,0,4.756,14.916-9.294,14.268c0,0-6.132,13.617-17.01-4.758
			c0,0-0.719-7.998,2.309-6.053c0,0,4.322-0.215,0-1.945c0,0-4.756-1.945,0-6.701c0,0,1.207-1.723-0.865-4.539
			c0,0-4.541-17.33,2.377-18.393c0,0,1.731-3.873,4.974-5.602c0,0,2.811-3.029,0.865-7.352c0,0-1.299-8.43,0.863-8.863
			c0,0,3.243,1.082,2.38-1.082c0,0-1.516-2.811-3.677-0.863c0,0-2.378,1.512-1.73,7.35c0,0,1.948,8.215-4.971,12.322
			c0,0-2.378-1.299-1.513-6.27c0,0-1.73-12.756,3.458-16.428c0,0-6.484-6.92-1.514-17.943c0,0,5.189-5.189,6.703,0
			c0,0,0.647,3.027-3.352,4.107c0,0-1.838,1.945,1.188,1.08c0,0,2.812-0.217,5.623-6.484c0,0,3.025-3.242,10.809,0.865
			c0,0,4.322,4.549,6.917,5.84c0,0,2.594,0.645,3.242,7.346c0,0,3.892,5.404,5.188,9.078c0,0,1.947,6.271-1.08,6.055
			c0,0-3.649-1.312-2.596-6.271c0,0-2.593,6.055-7.565,7.352c0,0-1.944,3.027,1.515,1.73c0,0,6.484-5.189,7.351,1.514
			c0,0,2.159,6.701-3.676,14.051c0,0-1.947,2.379,1.513,4.539c0,0,4.322,6.055-3.891,6.27c0,0,7.134,5.836,7.134-5.838
			c0,0-3.243-7.783,3.243-10.592c0,0,2.376-2.811,1.079,5.404c0,0-0.307,2.379,0.387,6.053
			C251.968,287.629,252.23,291.52,246.61,299.732z"/>
		<path d="M230.59,247.182c2.784-1.104,4.562,3.049,4.562,3.049c-1.298,1.512-0.648,2.162-0.648,2.162l3.457,0.865
			c1.947,4.107,2.164,3.889,2.164,3.889c2.378-3.023-2.595-8.428-2.595-8.428c-0.431-6.486-3.676-5.189-3.676-5.189
			c-6.269,0.217-6.917-3.676-6.917-3.676c1.297-1.297,3.652,0,3.652,0c2.784-0.43,1.613-1.297,1.613-1.297
			c-2.731-3.025-6.993,0-6.993,0c-1.535,0.814-1.515,3.459-1.515,3.459C222.181,245.475,230.59,247.182,230.59,247.182z"/>
		<path d="M224.993,282.873c6.362-0.837,8.956,2.6,9.806,4.193c-1.055-3.266,3.381-6.775,3.381-6.775
			c5.836-7.553-3.676-8.227-3.676-8.227c-7.35,3.025-5.188-2.162-5.188-2.162c2.594-7.998,1.273-9.295,1.273-9.295
			c-0.025-2.162,5.645-1.08,5.645-1.08c-3.025-1.73-5.645-5.406-5.645-5.406c0.19-5.188-2.787-4.971-2.787-4.971
			c-3.892-1.297-7.351-5.404-7.351-5.404c-0.865,3.632-3.249,4.909-4.169,5.276c1.37-0.284,4.385,0.777,4.385,0.777
			c2.379-0.432,4.325,1.943,4.325,1.943c4.97,2.596,3,11.893,3,11.893c-4.78,2.377-3.434,6.699-3.434,6.699
			c0,7.35,4.323,6.271,4.323,6.271c4.971,0.432,6.702,1.729,6.702,1.729c-4.107,7.135-14.051,0-14.051,0c0,3.674,0,7.35,0,7.35
			C222.832,285.469,224.993,282.873,224.993,282.873z"/>
		<path d="M234.799,287.066c0.084,0.262,0.193,0.522,0.354,0.779C235.152,287.846,235.046,287.53,234.799,287.066z"/>
		<path d="M216.283,249.022c-0.141,0.029-0.271,0.068-0.371,0.128C215.912,249.15,216.055,249.113,216.283,249.022z"/>
		<path d="M234.288,297.664c-1.297-10.715-7.566-6.361-7.566-6.361c-6.054,4.758-8.431,3.027-8.431,3.027
			c-5.838-2.16-2.379-10.16-2.379-10.16c-1.514-1.297-1.946,0-1.946,0c-1.645,11.857,1.946,13.494,1.946,13.494
			c5.978,2.766,11.924-3.432,11.924-3.432c2.845-1.826,4.367,4.854,4.367,4.854c2.241,5.836,3.814,5.188,3.814,5.188
			c5.188-0.217,4.751-5.619,4.751-5.619C236.388,307.729,234.288,297.664,234.288,297.664z"/>
		<path d="M226.291,306.77c1.079-4.422,0-5.305,0-5.305c-1.549,7.229-7.784,4.971-7.784,4.971l5.006,1.947
			c6.734,3.889,2.346,6.699,2.346,6.699c-1.947,1.73-0.865,2.379-0.865,2.379c1.298-0.432,4.323-3.027,4.323-3.027
			C230.613,310.111,226.291,306.77,226.291,306.77z"/>
		<path d="M219.804,319.406c-1.945,4.973-5.187,1.514-5.187,1.514c0.864,3.676,4.754,3.027,4.754,3.027
			c0.648-1.082,2.812-1.855,2.812-1.855C219.804,321.533,219.804,319.406,219.804,319.406z"/>
	</g>
</g>
</svg>
